module containerd-installer

go 1.17

require (
	github.com/Microsoft/hcsshim v0.8.23
	github.com/containerd/containerd v1.5.8
	github.com/google/glazier v0.0.0-20211125111747-329eab8c800a
	github.com/hashicorp/go-retryablehttp v0.7.0
	github.com/jfbus/httprs v0.0.0-20190827093123-b0af8319bb15
	github.com/klauspost/compress v1.11.13
	github.com/mholt/archiver/v3 v3.5.1
	github.com/pkg/errors v0.9.1
	github.com/sirupsen/logrus v1.8.1
	github.com/urfave/cli/v2 v2.3.0
	golang.org/x/sync v0.0.0-20210220032951-036812b2e83c
	golang.org/x/sys v0.0.0-20210927094055-39ccf1dd6fa6
)

require (
	github.com/Microsoft/go-winio v0.4.17 // indirect
	github.com/andybalholm/brotli v1.0.1 // indirect
	github.com/containerd/cgroups v1.0.1 // indirect
	github.com/cpuguy83/go-md2man/v2 v2.0.0 // indirect
	github.com/dsnet/compress v0.0.2-0.20210315054119-f66993602bf5 // indirect
	github.com/go-ole/go-ole v1.2.5 // indirect
	github.com/gogo/protobuf v1.3.2 // indirect
	github.com/golang/groupcache v0.0.0-20200121045136-8c9f03a8e57e // indirect
	github.com/golang/snappy v0.0.2 // indirect
	github.com/google/logger v1.1.1 // indirect
	github.com/hashicorp/go-cleanhttp v0.5.1 // indirect
	github.com/iamacarpet/go-win64api v0.0.0-20210311141720-fe38760bed28 // indirect
	github.com/klauspost/pgzip v1.2.5 // indirect
	github.com/mitchellh/copystructure v1.0.0 // indirect
	github.com/mitchellh/reflectwalk v1.0.0 // indirect
	github.com/nwaples/rardecode v1.1.0 // indirect
	github.com/pierrec/lz4/v4 v4.1.2 // indirect
	github.com/russross/blackfriday/v2 v2.0.1 // indirect
	github.com/shurcooL/sanitized_anchor_name v1.0.0 // indirect
	github.com/ulikunitz/xz v0.5.9 // indirect
	github.com/xi2/xz v0.0.0-20171230120015-48954b6210f8 // indirect
	go.opencensus.io v0.22.3 // indirect
)
